<?xml version="1.0" encoding="utf-8"?>
<!-- Generator: Adobe Illustrator 16.0.0, SVG Export Plug-In . SVG Version: 6.00 Build 0)  -->
<!DOCTYPE svg PUBLIC "-//W3C//DTD SVG 1.1//EN" "http://www.w3.org/Graphics/SVG/1.1/DTD/svg11.dtd">
<svg version="1.1" id="Layer_1" xmlns="http://www.w3.org/2000/svg" xmlns:xlink="http://www.w3.org/1999/xlink" x="0px" y="0px"
	 width="1000px" height="200px" viewBox="0 0 1000 200" enable-background="new 0 0 1000 200" xml:space="preserve">
<g>
	<path fill-rule="evenodd" clip-rule="evenodd" d="M193,151.21v0.01l-0.04,0.011l-0.03-0.011c0.02-0.01,0.04-0.01,0.05-0.029
		L193,151.21z"/>
	<path fill-rule="evenodd" clip-rule="evenodd" d="M223,55v8c-1,0.89-2.03,1.77-3.03,2.66c-0.26,0.22-0.51,0.45-0.75,0.67
		c-0.29,0.26-0.58,0.52-0.86,0.78c-0.22,0.21-0.44,0.42-0.66,0.63c-0.22,0.2-0.43,0.42-0.64,0.63c-0.17,0.17-0.35,0.35-0.53,0.52
		c-0.19,0.18-0.39,0.35-0.59,0.53c-0.24,0.22-0.49,0.44-0.73,0.67c-0.08,0.08-0.17,0.15-0.25,0.24c-0.56,0.57-1.09,1.15-1.43,1.79
		c-0.07,0.12-0.14,0.25-0.19,0.37c-0.03,0.05-0.06,0.11-0.08,0.17c-0.02,0.05-0.04,0.11-0.06,0.16c-1.17,3.44-1.62,7.13-2.48,10.69
		c-0.64,2.67-1.29,5.33-1.94,7.99c-1.94,7.99-3.88,15.99-5.82,23.98c-0.07,0.289-0.14,0.579-0.21,0.869
		c-2.51,10.37-5.01,20.75-7.46,31.141c-0.1,0.46-0.29,0.87-0.29,1.24c0,0.01,0,0.01,0,0.01c0,0.01-0.06,0.02-0.06,0.029
		c0.04,0.04,0.08,0.07,0.07,0.101c-0.05,0.14-0.01,0.27-0.01,0.39c0,0,0,0,0,0.01c0,0.04-0.02,0.07-0.06,0.11
		c-0.09,0.12-0.32,0.23-0.39,0.351c-0.26,0.47-0.63,0.789-1.02,1.06c-0.03,0.02-0.05,0.04-0.08,0.05
		c-0.01,0.021-0.02,0.08-0.03,0.09c0,0.01-0.01,0.07-0.01,0.07h-0.01c-0.02,0-0.04-0.029-0.06-0.02c-0.03,0.02-0.06,0.01-0.09,0.03
		c-0.03,0.029-0.07,0.044-0.11,0.054c-0.02,0-0.06-0.064-0.07-0.064h-0.01l-0.01,0.06c0,0,0-0.01-0.01-0.01
		c-0.02,0-0.03-0.05-0.04-0.05s-0.01,0-0.02,0h-0.01h-0.01l-0.06,0.03c-0.01,0-0.08-0.03-0.09-0.03h-0.01
		c-0.03,0-0.06,0.18-0.1,0.19c-0.01,0.01-0.03,0.09-0.04,0.09l-0.01,0.05c-0.02,0-0.05,0.03-0.08,0.04
		c-0.11,0.06-0.24,0.12-0.37,0.17c-0.14,0.05-0.28,0.26-0.43,0.29l-0.01,0.17h-0.01c-0.03,0-0.07,0.03-0.1,0.02
		c-0.11-0.029-0.24-0.02-0.37-0.02c-0.01,0-0.01,0-0.02,0c-0.06,0-0.13-0.07-0.19-0.06c-0.05,0.01-0.09-0.04-0.14-0.03
		c-0.05,0.02-0.1,0-0.15,0.01c-0.4,0.05-0.84,0.07-1.31,0.07C189.32,152,189.16,152,189,152h-0.14c-10.95,0-21.89-0.04-32.84-0.04
		c-14.6,0-29.21,0-43.81,0.021c-7.3,0.01-14.6,0.01-21.9,0.02c-7.3,0.01-14.6,0-21.9,0h-4.88c-3.43-11-7.37-22.37-10.07-33.66
		c-0.44-1.84-0.86-3.68-1.27-5.53c-2.06-9.239-3.79-18.58-5.59-27.89c-0.36-1.86-0.72-3.72-1.09-5.58
		c-0.37-1.84-0.75-3.69-1.13-5.53c-0.04-0.21-0.09-0.43-0.15-0.64c0-0.03-0.01-0.05-0.01-0.08c-0.39-1.53-1.02-3.1-2.06-4.24
		c-0.14-0.16-0.29-0.31-0.44-0.46c-0.07-0.07-0.13-0.14-0.2-0.21c-0.05-0.05-0.1-0.09-0.14-0.14c-0.1-0.09-0.19-0.19-0.28-0.28
		c0-0.01-0.01-0.01-0.01-0.01c-0.28-0.27-0.55-0.53-0.83-0.79c-0.14-0.14-0.29-0.28-0.44-0.41c-0.25-0.23-0.49-0.46-0.74-0.67
		C39.05,65.86,39,65.84,39,65.82c-0.01,0.03-0.01,0.1-0.01,0.1L38.95,66c-0.01,0-0.01,0-0.01,0c-0.03,0-0.21-0.17-0.23-0.17
		c-0.01-0.01-0.02-0.02-0.02-0.03c0-0.03,0.02-0.06,0.05-0.09c0.02-0.03,0.05-0.05,0.07-0.08c0.02-0.02,0.03-0.04,0.03-0.06
		c0-0.01,0.16-0.08,0.16-0.08v-0.01c0-0.04-0.21-0.08-0.31-0.12c-0.01,0-0.11-0.17-0.11-0.17c-0.02-0.01-0.06-0.19-0.1-0.19h-0.01
		c0,0-0.01,0-0.02,0c-0.06,0-0.14,0-0.23,0h-0.01C38.2,65,38,65.09,38,65.09v-0.01c0-0.03,0.19-0.08,0.18-0.08H38.1
		c-0.03,0-0.06,0-0.09,0H38v0.23c0-0.19-0.25-0.38-0.46-0.57s-0.32-0.38-0.53-0.57c-0.31-0.28-0.56-0.55-0.85-0.83
		C35.73,62.84,35.38,62.42,35,62v-6c0-0.52,0.59-1,0.88-1.56c0.5-0.96,1.07-1.85,1.71-2.62c0.21-0.25,0.42-0.49,0.65-0.71
		c0.23-0.23,0.46-0.44,0.7-0.64c0.16-0.13,0.32-0.25,0.49-0.37c0.16-0.11,0.32-0.22,0.48-0.32c0.01-0.01,0.03-0.02,0.04-0.02
		c0.17-0.1,0.34-0.19,0.51-0.27c0.18-0.09,0.36-0.17,0.54-0.24c0.2-0.07,0.39-0.14,0.59-0.19c0.31-0.09,0.63-0.15,0.95-0.18
		c0.01,0,0.02,0,0.03,0.01c0.03,0,0.06,0.05,0.09,0.05c0.29-0.02,0.53,0.06,0.82,0.06h0.41c0.04,0,0.09-0.01,0.13-0.02
		c0.06,0,0.12-0.01,0.18,0c0.1,0.02,0.2,0.02,0.31,0.04c0.02,0,0.04,0,0.06,0.01c0.06,0.01,0.12,0.02,0.18,0.03
		c0.03,0,0.06,0.01,0.1,0.02c0.03,0.01,0.06,0.02,0.09,0.03c0.22,0.06,0.44,0.13,0.66,0.2c0.05,0.01,0.11,0.03,0.17,0.06
		c0.28,0.1,0.57,0.21,0.85,0.35c0.26,0.11,0.51,0.24,0.77,0.37c0.08,0.04,0.16,0.08,0.24,0.13c0.19,0.11,0.39,0.23,0.59,0.35
		c0.01-0.01,0.01,0,0.01,0c0.01-0.01,0.01,0,0.01,0c0.02,0.01,0.03,0.01,0.04,0.03c0.01-0.01,0.01,0.01,0.01,0.01
		c0.09,0.05,0.19,0.11,0.28,0.18c0.09,0.06,0.19,0.12,0.28,0.18c0.21,0.14,0.41,0.29,0.61,0.43c0.11,0.08,0.21,0.16,0.3,0.23
		l0.3,0.24c0.17,0.14,0.34,0.28,0.51,0.43c0.17,0.15,0.33,0.31,0.49,0.46c0.6,0.58,1.14,1.19,1.61,1.82
		c0.08,0.1,0.16,0.21,0.23,0.32c0.07,0.1,0.14,0.21,0.21,0.31c2.31,3.59,1.02,7.72-1.96,10.98c-0.09,0.11-0.19,0.21-0.29,0.3
		c-0.08,0.1-0.19,0.2-0.29,0.3c-0.2,0.21-0.41,0.4-0.61,0.58c-0.41,0.39-0.83,0.76-1.24,1.15c3.34,6.21,6.08,12.54,9.91,18.12
		c0.9,1.31,1.8,2.62,2.7,3.93c0.91,1.31,1.83,2.62,2.75,3.92c1.84,2.61,3.7,5.2,5.59,7.77c1.89,2.57,3.81,5.12,5.75,7.641
		c1.95,2.529,3.94,5.02,5.96,7.479c4.23,5.16,8.51,4.561,12.19-1.13c5.21-8.05,10.24-16.31,14.41-24.93
		c6.28-12.97,11.76-26.33,17.68-39.76c-5.13-2.56-8.71-5.67-9.13-11.41c-0.52-7.08,3.48-11.03,8.99-14.15h7
		c5.96,3.92,10.39,8.93,7.71,16.47c-1.27,3.6-4.51,6.5-7.42,10.49c2.19,5.37,4.55,12.13,7.65,18.53
		c6.81,14.03,13.22,28.36,21.28,41.66c6.26,10.33,9.9,9.93,18.22,0.71c12.15-13.46,20.45-29.4,28.36-44.541
		c-1.82-3.33-3.86-5.87-4.61-8.75c-1.17-4.55,1.86-9.08,6.13-10.97C214.49,47.54,218,49.21,223,55z"/>
	<path fill-rule="evenodd" clip-rule="evenodd" fill="none" d="M223,63.43V176h-29v-20H64.02c-0.21,0-0.42,0.84-0.42,1.15
		c-0.04,6.31-0.06,12.54-0.08,18.85H35V62c0.38,0.42,0.73,0.84,1.16,1.26c0.29,0.28,0.54,0.55,0.85,0.83
		c0.21,0.19,0.32,0.38,0.53,0.57S38,65.04,38,65.23V65h0.01c0.07,0,0.12,0.14,0.17,0.15c0.04,0.01,0.07,0.02,0.1,0.04
		c0.06,0.04,0.11,0.08,0.15,0.12c0.01,0,0.01,0,0.02,0.01c0.01,0.01,0.03,0.02,0.04,0.03c0.05,0.05,0.11,0.1,0.17,0.14
		c0,0,0,0,0.01,0.01c0,0-0.01,0,0,0.01c0,0.04-0.01,0.07-0.01,0.11c0,0.02,0,0.03,0.01,0.04c-0.01,0.05,0,0.1,0.02,0.14
		c0,0.01,0.01,0.02,0.02,0.03c0.02,0,0.2,0.17,0.23,0.17c0,0,0,0,0.01,0l0.04-0.08c0,0,0-0.07,0.01-0.1c0,0.02,0.05,0.04,0.08,0.06
		c0.25,0.21,0.49,0.44,0.74,0.67c0.15,0.13,0.3,0.27,0.44,0.41c0.28,0.26,0.55,0.52,0.83,0.79c0,0,0.01,0,0.01,0.01
		c0.09,0.09,0.18,0.19,0.28,0.28c0.04,0.05,0.09,0.09,0.14,0.14c0.07,0.07,0.13,0.14,0.2,0.21c0.15,0.15,0.3,0.3,0.44,0.46
		c1.04,1.14,1.67,2.71,2.06,4.24c0,0.03,0.01,0.05,0.01,0.08c0.06,0.21,0.11,0.43,0.15,0.64c0.38,1.84,0.76,3.69,1.13,5.53
		c0.37,1.86,0.73,3.72,1.09,5.58c1.8,9.31,3.53,18.65,5.59,27.89c0.41,1.851,0.83,3.69,1.27,5.53C56.16,129.63,60.1,141,63.53,152
		h4.88c7.3,0,14.6,0.01,21.9,0c7.3-0.01,14.6-0.01,21.9-0.02c14.6-0.021,29.21-0.021,43.81-0.021c10.95,0,21.89,0.04,32.84,0.04H189
		c0.16,0,0.32,0,0.47-0.01c0.47,0,0.91-0.021,1.31-0.07c0.05-0.01,0.1,0.01,0.15-0.01c0.05-0.01,0.09,0.04,0.14,0.03
		c0.06-0.011,0.13,0.06,0.19,0.06c0.01,0,0.01,0,0.02,0c0.13,0,0.26-0.01,0.37,0.02c0.03,0.011,0.07-0.02,0.1-0.02h0.01l0.01-0.17
		c0.15-0.03,0.29-0.15,0.43-0.2c0.13-0.04,0.25-0.13,0.37-0.2c0.03-0.01,0.06-0.04,0.08-0.05c0.09-0.04,0.18-0.09,0.26-0.149
		c0.01,0,0.01-0.011,0.02-0.011l0.03,0.011l0.04-0.011v-0.01l-0.01-0.04l-0.01-0.05c0-0.01,0.01-0.01,0.01-0.01
		c0.01,0,0.02,0.02,0.03,0.01c0.01-0.01,0.02,0.01,0.03,0c0.01,0,0.01,0,0.02-0.01c0.05-0.03,0.11-0.061,0.16-0.101
		c0.06-0.04,0.11-0.08,0.17-0.12l0.01-0.01c0,0,0.01,0,0.01-0.01c0.01-0.01,0.02-0.01,0.03-0.03c0.03-0.01,0.05-0.03,0.08-0.05
		c0.39-0.271,0.76-0.59,1.02-1.06c0.07-0.12,0.3-0.23,0.39-0.351c0.04-0.04,0.06-0.07,0.06-0.11c0-0.01,0-0.01,0-0.01
		c0-0.12-0.04-0.25,0.01-0.39c0.01-0.03-0.03-0.061-0.07-0.101c0-0.01,0.06-0.02,0.06-0.029c0,0,0,0,0-0.01
		c0-0.37,0.19-0.78,0.29-1.24c2.45-10.391,4.95-20.771,7.46-31.141c0.07-0.29,0.14-0.58,0.21-0.869
		c2.61-10.66,5.24-21.311,7.82-31.971c0.86-3.56,1.37-7.25,2.54-10.69c0.43-1.28,1.68-2.36,2.85-3.41c0.4-0.34,0.78-0.69,1.13-1.04
		C218.98,66.66,221,65.06,223,63.43z"/>
	<path fill-rule="evenodd" clip-rule="evenodd" fill="none" d="M38.66,65.48l0.01,0.01v0.01c-0.01-0.01-0.01-0.01-0.01-0.01
		c-0.06-0.04-0.12-0.09-0.17-0.14c-0.01-0.01-0.03-0.02-0.04-0.03c-0.01-0.01-0.01-0.01-0.02-0.01c-0.04-0.04-0.09-0.08-0.15-0.12
		c0.02,0,0.04,0.01,0.06,0.02l0.01,0.01h0.01c0.05,0.03,0.1,0.06,0.13,0.07c0.05,0.05,0.11,0.13,0.17,0.17
		C38.66,65.46,38.66,65.47,38.66,65.48z"/>
	<path fill-rule="evenodd" clip-rule="evenodd" fill="none" d="M193.4,150.88c0.01-0.01,0.01-0.01,0.02-0.01
		c0,0.01-0.01,0.01-0.01,0.01l-0.01,0.01c-0.06,0.04-0.11,0.08-0.17,0.12c-0.05,0.04-0.11,0.07-0.16,0.101
		c-0.01,0.01-0.01,0.01-0.02,0.01c-0.01,0.01-0.02-0.01-0.03,0c-0.01,0.01-0.02-0.01-0.03-0.01c0,0,0.01-0.011,0.01-0.03
		c0.02-0.03,0.04-0.08,0.06-0.08h0.01c0.01,0,0.05,0.05,0.07,0.05c0.04-0.01,0.08-0.04,0.11-0.069c0.03-0.021,0.06-0.04,0.09-0.061
		C193.36,150.91,193.38,150.9,193.4,150.88z"/>
	<path fill-rule="evenodd" clip-rule="evenodd" fill="none" d="M194.94,149.38c-0.09,0.12-0.32,0.23-0.39,0.351
		c-0.26,0.47-0.63,0.789-1.02,1.06c0.39-0.29,0.76-0.63,1.02-1.1C194.62,149.58,194.84,149.49,194.94,149.38z"/>
	<path fill-rule="evenodd" clip-rule="evenodd" fill="none" d="M193,151.21v0.01l-0.04,0.011l-0.03-0.011
		c0.02-0.01,0.04-0.01,0.05-0.029L193,151.21z"/>
	<path fill-rule="evenodd" clip-rule="evenodd" fill="none" d="M38.43,65.31c-0.04-0.04-0.09-0.08-0.15-0.12
		c-0.03-0.02-0.06-0.03-0.1-0.04c-0.05-0.01-0.1-0.15-0.17-0.15H38v0.23c0-0.19-0.25-0.38-0.46-0.57s-0.32-0.38-0.53-0.57
		c-0.31-0.28-0.56-0.55-0.85-0.83C35.73,62.84,35.38,62.42,35,62c0.38,0.42,0.78,0.84,1.21,1.26c0.29,0.28,0.58,0.55,0.89,0.83
		c0.21,0.19,0.42,0.385,0.63,0.575C37.85,64.775,37.97,65,38.09,65h0.01c0.03,0,0.07,0.015,0.1,0.045c0,0,0-0.045,0.01-0.045h0.01
		c0.04,0,0.08,0.12,0.12,0.16l0.01,0.035C38.37,65.225,38.4,65.28,38.43,65.31z"/>
	<path fill-rule="evenodd" clip-rule="evenodd" fill="none" d="M38.94,65.75c-0.02-0.02-0.15-0.03-0.2-0.04
		c-0.02-0.01-0.03-0.01-0.03-0.01c-0.02-0.02-0.03-0.03-0.04-0.04c-0.01-0.01-0.01-0.02-0.01-0.04c0-0.04,0.01-0.07,0.01-0.11
		c0.05,0.04,0.09,0.08,0.14,0.12C38.85,65.66,38.89,65.7,38.94,65.75z"/>
	<path fill-rule="evenodd" clip-rule="evenodd" fill="none" d="M39.08,65.88C39.05,65.86,39,65.84,39,65.82v-0.01
		C39.02,65.83,39.05,65.85,39.08,65.88z"/>
	<path fill-rule="evenodd" clip-rule="evenodd" fill="none" d="M112.21,151.98c-7.3,0.01-14.6,0.01-21.9,0.02
		c-7.3,0.01-14.6,0-21.9,0c7.3,0,14.6,0,21.9-0.01C97.61,151.98,104.91,151.98,112.21,151.98z"/>
	<path fill-rule="evenodd" clip-rule="evenodd" fill="none" d="M191.75,152c-0.03,0-0.07,0.03-0.1,0.02
		c-0.11-0.029-0.24-0.02-0.37-0.02c-0.01,0-0.01,0-0.02,0c-0.06,0-0.13-0.07-0.19-0.06c-0.05,0.01-0.09-0.04-0.14-0.03
		c-0.05,0.02-0.1,0-0.15,0.01c-0.4,0.05-0.84,0.07-1.31,0.07c0.47-0.01,0.91-0.05,1.31-0.101c0.1-0.01,0.2-0.029,0.29-0.05
		c0.08-0.01,0.15,0.13,0.21,0.11C191.45,151.93,191.6,152,191.75,152z"/>
	<path fill-rule="evenodd" clip-rule="evenodd" fill="none" d="M193.25,150.98c0.03-0.021,0.06-0.04,0.09-0.061
		c-0.03,0.03-0.07,0.061-0.11,0.09c-0.05,0.04-0.11,0.07-0.16,0.101c-0.01,0.01-0.01,0.01-0.02,0.01c-0.01,0.01-0.02-0.01-0.03,0
		c-0.01,0.01-0.02-0.01-0.03-0.01c0,0,0.01-0.011,0.01-0.03c0.02-0.03,0.04-0.08,0.06-0.08h0.01c0.01,0,0.05,0.05,0.07,0.05
		C193.18,151.04,193.22,151.01,193.25,150.98z"/>
	<path fill-rule="evenodd" clip-rule="evenodd" fill="none" d="M195,148.74c0,0.01-0.06,0.02-0.06,0.029
		c0.04,0.04,0.08,0.07,0.07,0.101c-0.05,0.14-0.01,0.27-0.01,0.39c0,0,0,0,0,0.01c0,0.04-0.02,0.07-0.06,0.11
		c-0.09,0.12-0.32,0.23-0.39,0.351c-0.26,0.47-0.63,0.789-1.02,1.06c-0.03,0.02-0.05,0.04-0.08,0.05c0.1-0.08,0.21-0.18,0.3-0.27
		c0.66-0.67,1.15-1.66,1.49-3.08c2.45-10.391,4.97-20.771,7.51-31.141c-2.51,10.37-5.01,20.75-7.46,31.141
		c-0.1,0.46-0.29,0.87-0.29,1.24C195,148.74,195,148.74,195,148.74z"/>
	<path fill-rule="evenodd" clip-rule="evenodd" fill="none" d="M38.09,64.99c0.04,0.03,0.08,0.07,0.13,0.11
		c-0.01,0.01-0.01,0-0.01,0C38.17,65.06,38.13,65.03,38.09,64.99z"/>
	<path fill-rule="evenodd" clip-rule="evenodd" fill="none" d="M38.66,65.48v0.01c-0.06-0.04-0.12-0.09-0.17-0.14
		c-0.01-0.01-0.03-0.02-0.04-0.03c-0.01-0.01-0.01-0.01-0.02-0.01c-0.03-0.03-0.06-0.06-0.08-0.09h0.01
		c0.04,0.04,0.07,0.07,0.11,0.1h0.01c0.01,0.02,0.03,0.03,0.04,0.04C38.56,65.41,38.61,65.45,38.66,65.48z"/>
	<path fill-rule="evenodd" clip-rule="evenodd" fill="none" d="M38.67,65.49v0.01c-0.01-0.01-0.01-0.01-0.01-0.01H38.67z"/>
	<path fill-rule="evenodd" clip-rule="evenodd" fill="none" d="M38.67,65.51c-0.01-0.01,0-0.01,0-0.01
		c0.05,0.05,0.09,0.08,0.14,0.13C38.76,65.59,38.72,65.55,38.67,65.51z"/>
	<path fill-rule="evenodd" clip-rule="evenodd" fill="none" d="M63.53,152c-3.43-11-7.37-22.37-10.07-33.66
		c-0.44-1.84-0.86-3.68-1.27-5.53c-2.06-9.239-3.79-18.58-5.59-27.89c-0.36-1.86-0.72-3.72-1.09-5.58
		c-0.37-1.84-0.75-3.69-1.13-5.53c-0.04-0.21-0.09-0.43-0.15-0.64c0-0.03-0.01-0.05-0.01-0.08c-0.39-1.53-1.02-3.1-2.06-4.24
		c-0.14-0.16-0.29-0.31-0.44-0.46c0.15,0.14,0.3,0.29,0.44,0.44c1.05,1.15,1.74,2.72,2.18,4.26c0,0.03-0.05,0.05-0.05,0.08
		c0.06,0.21,0.08,0.43,0.12,0.64c3.07,14.83,5.55,29.82,9.07,44.53C56.18,129.63,60.1,141,63.53,152z"/>
	<path fill-rule="evenodd" clip-rule="evenodd" fill="none" d="M39.08,65.88c-0.03-0.03-0.06-0.05-0.08-0.07
		c-0.01-0.01-0.01-0.01-0.01-0.02C39.02,65.82,39.05,65.84,39.08,65.88z"/>
	<path fill-rule="evenodd" clip-rule="evenodd" fill="none" d="M191.75,151.69c0,0,0.01-0.011,0.02-0.011l-0.01,0.011H191.75z"/>
	<path fill-rule="evenodd" clip-rule="evenodd" fill="none" d="M192.57,151.39c0.08-0.04,0.16-0.08,0.23-0.109
		c-0.05,0.029-0.1,0.06-0.15,0.08C192.63,151.37,192.6,151.38,192.57,151.39z"/>
	<path fill-rule="evenodd" clip-rule="evenodd" fill="none" d="M192.9,151.21c0.04-0.02,0.08-0.04,0.12-0.06
		c-0.04,0.029-0.08,0.05-0.12,0.069V151.21z"/>
	<path fill-rule="evenodd" clip-rule="evenodd" fill="none" d="M216.17,69.41c-1.17,1.05-2.42,2.13-2.85,3.41
		c-1.17,3.44-1.68,7.13-2.54,10.69c-2.58,10.66-5.21,21.311-7.82,31.971c-0.07,0.289-0.14,0.579-0.21,0.869
		c-2.54,10.37-5.06,20.75-7.51,31.141c-0.34,1.42-0.83,2.41-1.49,3.08c-0.09,0.09-0.2,0.189-0.3,0.27
		c-0.01,0.021-0.02,0.021-0.03,0.03c0,0.01-0.01,0.01-0.01,0.01l-0.01,0.01c-0.06,0.04-0.11,0.08-0.17,0.12
		c-0.05,0.04-0.11,0.07-0.16,0.101c0.03-0.021,0.05-0.03,0.07-0.061c0.04-0.01,0.08-0.04,0.11-0.069c0.43-0.311,0.8-0.721,1.1-1.25
		c0.18-0.29,0.34-0.631,0.48-1c0.15-0.37,0.27-0.78,0.38-1.24c4.4-18.69,9.02-37.33,13.57-55.99c0.65-2.66,1.3-5.32,1.94-7.99
		c0.86-3.56,1.31-7.25,2.48-10.69c0.02-0.05,0.04-0.11,0.06-0.16c0.02-0.06,0.05-0.12,0.08-0.17c0.05-0.12,0.12-0.25,0.19-0.37
		C214.13,71.14,215.18,70.26,216.17,69.41z"/>
	<path fill-rule="evenodd" clip-rule="evenodd" fill="#FFFFFF" d="M45.51,79.34c-0.37-1.84-0.75-3.69-1.13-5.53
		c-0.04-0.21-0.09-0.43-0.15-0.64c0.06,0.2,0.11,0.4,0.15,0.6C44.76,75.62,45.14,77.48,45.51,79.34z"/>
	<path fill-rule="evenodd" clip-rule="evenodd" fill="#FFFFFF" d="M223,63v0.43c-2,1.63-4.02,3.23-5.7,4.94
		c-0.35,0.35-0.73,0.7-1.13,1.04c-1.17,1.05-2.42,2.13-2.85,3.41c-1.17,3.44-1.68,7.13-2.54,10.69
		c-2.58,10.66-5.21,21.311-7.82,31.971c-0.07,0.289-0.14,0.579-0.21,0.869c-2.54,10.37-5.06,20.75-7.51,31.141
		c-0.34,1.42-0.83,2.41-1.49,3.08c-0.09,0.09-0.2,0.189-0.3,0.27c-0.01,0.021-0.02,0.021-0.03,0.03c0,0.01-0.01,0.01-0.01,0.01
		l-0.01,0.01c-0.06,0.04-0.11,0.08-0.17,0.12c-0.05,0.04-0.11,0.07-0.16,0.101c0.03-0.021,0.05-0.03,0.07-0.061
		c0.04-0.01,0.08-0.04,0.11-0.069c0.43-0.311,0.8-0.721,1.1-1.25c0.18-0.29,0.34-0.631,0.48-1c0.13-0.36,0.25-0.761,0.35-1.2
		c5.03-21.36,10.32-42.681,15.48-64c0.86-3.56,1.25-7.26,2.42-10.7c0.32-0.92,1.06-1.74,1.88-2.5c0.08-0.09,0.17-0.16,0.25-0.24
		c0.24-0.23,0.49-0.45,0.73-0.67c0.2-0.18,0.4-0.35,0.59-0.53c0.19-0.17,0.36-0.34,0.53-0.51c0.21-0.22,0.42-0.43,0.64-0.64
		c0.22-0.21,0.44-0.42,0.66-0.63c0.28-0.26,0.57-0.52,0.86-0.78c0.24-0.22,0.49-0.45,0.75-0.67C220.97,64.77,222,63.89,223,63z"/>
	<path fill-rule="evenodd" clip-rule="evenodd" fill="#FFFFFF" d="M58.63,86.64c-3.83-5.58-6.57-11.91-9.91-18.12
		c0.41-0.39,0.83-0.76,1.24-1.15c0.2-0.18,0.41-0.37,0.61-0.58c0.2-0.2,0.39-0.39,0.58-0.6c2.98-3.26,4.27-7.39,1.96-10.98
		c-0.55-0.85-1.25-1.68-2.05-2.45c-0.16-0.15-0.32-0.31-0.49-0.46c-0.17-0.15-0.34-0.29-0.51-0.43c-1.56-1.28-3.36-2.29-5.12-2.77
		c-0.06-0.02-0.12-0.03-0.18-0.04c-0.07-0.02-0.13-0.04-0.19-0.05c-0.13-0.03-0.25-0.05-0.37-0.07c-0.12-0.02-0.24,0.035-0.36,0.015
		c-0.1-0.01-0.2,0.045-0.3,0.045h-0.06c0.35,0,0.69,0.005,1.05,0.085c0.01,0.01,0.02-0.022,0.04-0.022
		c0.08,0.02,0.17,0.034,0.25,0.054c3.12,0.86,6.46,3.362,8.23,6.102c2.31,3.59,1.05,7.716-1.93,10.976
		c-0.75,0.82-1.6,1.548-2.42,2.328c3.35,6.21,6.09,12.539,9.92,18.119c0.9,1.31,1.8,2.629,2.71,3.929
		C60.43,89.26,59.53,87.95,58.63,86.64z M69.67,102.26c1.89,2.57,3.8,5.12,5.75,7.641C73.48,107.38,71.56,104.83,69.67,102.26z"/>
	<path fill-rule="evenodd" clip-rule="evenodd" fill="none" d="M42.54,48.88c-0.32,0.03-0.64,0.09-0.95,0.18
		c0.32-0.08,0.64-0.14,0.98-0.17C42.56,48.88,42.55,48.88,42.54,48.88z"/>
	<path fill-rule="evenodd" clip-rule="evenodd" fill="none" d="M116.53,40.15c-0.52-7.08,3.48-11.03,8.99-14.15H35v30
		c0-0.52,0.59-1,0.88-1.56c0.5-0.96,1.07-1.85,1.71-2.62c0.42-0.51,0.87-0.97,1.35-1.35c0.16-0.14,0.32-0.27,0.49-0.37
		c0.16-0.13,0.31-0.23,0.48-0.32c0.01-0.01,0.03-0.02,0.04-0.02c0.16-0.11,0.33-0.2,0.51-0.27c0.17-0.1,0.36-0.17,0.54-0.24
		c0.2-0.07,0.39-0.14,0.59-0.19c0.31-0.09,0.63-0.15,0.95-0.18c0.01,0,0.02,0,0.03,0.01c0.03,0,0.06,0.055,0.09,0.055
		C42.95,48.915,43.19,49,43.48,49h0.06c0.1,0,0.2-0.055,0.3-0.045c0.12,0.01,0.24-0.003,0.36,0.018c0.12,0.01,0.25,0.014,0.37,0.053
		c0.13,0.02,0.26,0.042,0.4,0.083c3.12,0.86,6.38,3.366,8.15,6.105c2.32,3.59,1.02,7.718-1.96,10.978
		c-0.19,0.21-0.39,0.409-0.59,0.599c-0.2,0.21-0.41,0.399-0.61,0.58c-0.41,0.39-0.83,0.76-1.24,1.15
		c3.34,6.21,6.08,12.54,9.91,18.12c0.9,1.31,1.8,2.62,2.7,3.93c0.91,1.31,1.83,2.62,2.75,3.92c1.84,2.61,3.7,5.2,5.59,7.77
		c1.89,2.57,3.81,5.12,5.75,7.641c1.95,2.529,3.94,5.02,5.96,7.479c4.23,5.16,8.51,4.561,12.19-1.13
		c5.21-8.05,10.24-16.31,14.41-24.93c6.28-12.97,11.76-26.33,17.68-39.76C120.53,49,116.95,45.89,116.53,40.15z M99.94,104.08
		c-0.81,0.84-1.46,1.83-2.19,2.729c-7.93,9.83-12.17,9.82-19.78-0.13c-2.12-2.77-4.1-5.64-6.28-8.66c3.84-6.68,7.48-13,11.05-19.21
		c-5.85-7.05-6.28-11.41-1.71-15.3c3.1-2.64,8.09-2.38,10.87,0.57c3.55,3.76,2.59,9.23-2.87,14.72c3.65,6.17,7.22,12.54,11.16,18.67
		C101.82,100,102.03,101.92,99.94,104.08z"/>
	<path fill-rule="evenodd" clip-rule="evenodd" fill="none" d="M132.52,26c5.96,3.92,10.39,8.93,7.71,16.47
		c-1.27,3.6-4.51,6.5-7.42,10.49c2.19,5.37,4.55,12.13,7.65,18.53c6.81,14.03,13.22,28.36,21.28,41.66
		c6.26,10.33,9.9,9.93,18.22,0.71c12.15-13.46,20.45-29.4,28.36-44.541c-1.82-3.33-3.86-5.87-4.61-8.75
		c-1.17-4.55,1.86-9.08,6.13-10.97c4.65-2.06,8.16-0.39,13.16,5.4V26H132.52z M182.81,103.3c-2.21,3.271-4.97,6.2-7.78,8.99
		c-2.62,2.61-5.97,2.78-8.49,0.2c-4.04-4.13-7.72-8.63-11.21-13.23c-0.62-0.82,0.05-3.1,0.75-4.37c3.01-5.51,6.24-10.89,9.32-16.19
		c-5.68-6.34-6.3-11.09-2.21-14.96c2.94-2.79,7.9-2.77,10.86,0.04c3.92,3.74,3.14,8.99-2.39,14.9c3.77,6.32,7.74,12.63,11.29,19.18
		C183.73,99.29,183.69,102.01,182.81,103.3z"/>
	<path fill-rule="evenodd" clip-rule="evenodd" d="M194,156v20H63.52c0.02-6.31,0.04-12.54,0.08-18.85c0-0.311,0.21-1.15,0.42-1.15
		H194z"/>
	<path fill-rule="evenodd" clip-rule="evenodd" d="M99.94,104.08c-0.81,0.84-1.46,1.83-2.19,2.729c-7.93,9.83-12.17,9.82-19.78-0.13
		c-2.12-2.77-4.1-5.64-6.28-8.66c3.84-6.68,7.48-13,11.05-19.21c-5.85-7.05-6.28-11.41-1.71-15.3c3.1-2.64,8.09-2.38,10.87,0.57
		c3.55,3.76,2.59,9.23-2.87,14.72c3.65,6.17,7.22,12.54,11.16,18.67C101.82,100,102.03,101.92,99.94,104.08z"/>
	<path fill-rule="evenodd" clip-rule="evenodd" d="M182.81,103.3c-2.21,3.271-4.97,6.2-7.78,8.99c-2.62,2.61-5.97,2.78-8.49,0.2
		c-4.04-4.13-7.72-8.63-11.21-13.23c-0.62-0.82,0.05-3.1,0.75-4.37c3.01-5.51,6.24-10.89,9.32-16.19
		c-5.68-6.34-6.3-11.09-2.21-14.96c2.94-2.79,7.9-2.77,10.86,0.04c3.92,3.74,3.14,8.99-2.39,14.9c3.77,6.32,7.74,12.63,11.29,19.18
		C183.73,99.29,183.69,102.01,182.81,103.3z"/>
</g>
<g>
	<g>
		<path fill="#FFFFFF" d="M547.226,150.619c1.327-1.942,3.037-3.652,4.979-4.979c1.587-1.084,0.089-3.685-1.514-2.59
			c-2.387,1.63-4.425,3.669-6.056,6.056C543.541,150.707,546.142,152.206,547.226,150.619L547.226,150.619z"/>
	</g>
</g>
<text transform="matrix(1 0 0 1 256.6909 149.8633)"><tspan x="0" y="0" font-family="'MyriadPro-Regular'" font-size="156" letter-spacing="-1">Royal</tspan><tspan x="347.251" y="0" font-family="'MyriadPro-Regular'" font-size="156" letter-spacing="-14"> </tspan><tspan x="366.282" y="0" font-family="'MyriadPro-Regular'" font-size="156" letter-spacing="-1">CMS</tspan></text>
</svg>
